Načítání eyetrackerových dat do R
…
## # A tibble: 6 x 3
##   block    time text                       
##   <dbl>   <dbl> <chr>                      
## 1     1 4530814 SYNCTIME                   
## 2     2 4537563 !MODE RECORD CR 2000 2 1 LR
## 3     2 4537702 SYNCTIME                   
## 4     3 4544120 !MODE RECORD CR 2000 2 1 LR
## 5     3 4544274 SYNCTIME                   
## 6     4 4551229 SYNCTIME

e1$fix

## # A tibble: 111 x 8
##    block   stime   etime   dur   axp   ayp   aps eye  
##    <dbl>   <dbl>   <dbl> <dbl> <dbl> <dbl> <dbl> <fct>
##  1     1 4530665 4531019   354  852.  512.  1793 R    
##  2     1 4530665 4531020   355  838.  503.  2137 L    
##  3     1 4531045 4531178   133  793.  449.  1619 R    
##  4     1 4531046 4531179   133  778.  431.  1963 L    
##  5     1 4531192 4531572   380  757   397.  1167 R    
##  6     1 4531195 4531574   379  776.  410.  1407 L    
##  7     1 4531620 4531735   115 1236.  556.  1271 L    
##  8     1 4531628 4531735   107 1188.  535.  1070 R    
##  9     1 4531759 4532381   622 1293.  577.  1357 L    
## 10     1 4531760 4532382   622 1248.  566.  1173 R    
## # ... with 101 more rows
…
Nyní si načteme data a podíváme se na ně.

ff1 <- fixations_for_each_trial(
  e1, 
  origin = screen_size / 2 - image_size / 2, 
  imagesize = image_size
)
ff1

## # A tibble: 111 x 9
##    block stime etime eye       x     y   dur pupil inside
##    <dbl> <dbl> <dbl> <fct> <dbl> <dbl> <dbl> <dbl> <lgl> 
##  1     1  -149   205 R      524.  499.   354  1793 TRUE  
##  2     1  -149   206 L      510.  490.   355  2137 TRUE  
##  3     1   231   364 R      465.  436.   133  1619 TRUE  
##  4     1   232   365 L      450.  418.   133  1963 TRUE  
##  5     1   378   758 R      429   384.   380  1167 TRUE  
##  6     1   381   760 L      448.  397.   379  1407 TRUE  
##  7     1   806   921 L      908.  543.   115  1271 TRUE  
##  8     1   814   921 R      860.  522.   107  1070 TRUE  
##  9     1   945  1567 L      965.  564.   622  1357 TRUE  
## 10     1   946  1568 R      920.  553.   622  1173 TRUE  
## # ... with 101 more rows
…
